-------------------------------------------------------------------------------
Test set: TestSuite
-------------------------------------------------------------------------------
Tests run: 19, Failures: 12, Errors: 0, Skipped: 7, Time elapsed: 1.032 s <<< FAILURE! - in TestSuite
initDriver(tests.PerfectoFreeTrailRegistrationTest_DefaultProfile)  Time elapsed: 0.842 s  <<< FAILURE!
java.lang.Exception: Please replace <<security token>> with your perfecto security token or pass it as ant properties: -DsecurityToken=<<SECURITY TOKEN>>

initDriver(tests.PerfectoFreeTrailRegistrationTest_DefaultProfile)  Time elapsed: 0.843 s  <<< FAILURE!
java.lang.Exception: Please replace <<security token>> with your perfecto security token or pass it as ant properties: -DsecurityToken=<<SECURITY TOKEN>>

initDriver(tests.PerfectoFreeTrailRegistrationTest_DefaultProfile)  Time elapsed: 0.843 s  <<< FAILURE!
java.lang.Exception: Please replace <<security token>> with your perfecto security token or pass it as ant properties: -DsecurityToken=<<SECURITY TOKEN>>

initDriver(tests.PerfectoFreeTrailRegistrationTest_DefaultProfile)  Time elapsed: 0.843 s  <<< FAILURE!
java.lang.Exception: Please replace <<security token>> with your perfecto security token or pass it as ant properties: -DsecurityToken=<<SECURITY TOKEN>>

initDriver(tests.PerfectoFreeTrailRegistrationTest_DefaultProfile)  Time elapsed: 0.843 s  <<< FAILURE!
java.lang.Exception: Please replace <<security token>> with your perfecto security token or pass it as ant properties: -DsecurityToken=<<SECURITY TOKEN>>

initDriver(tests.PerfectoFreeTrailRegistrationTest_DefaultProfile)  Time elapsed: 0.843 s  <<< FAILURE!
java.lang.Exception: Please replace <<security token>> with your perfecto security token or pass it as ant properties: -DsecurityToken=<<SECURITY TOKEN>>

closerDriver(tests.PerfectoFreeTrailRegistrationTest_DefaultProfile)  Time elapsed: 0.006 s  <<< FAILURE!
java.lang.NullPointerException

closerDriver(tests.PerfectoFreeTrailRegistrationTest_DefaultProfile)  Time elapsed: 0.007 s  <<< FAILURE!
java.lang.NullPointerException

closerDriver(tests.PerfectoFreeTrailRegistrationTest_DefaultProfile)  Time elapsed: 0.008 s  <<< FAILURE!
java.lang.NullPointerException

closerDriver(tests.PerfectoFreeTrailRegistrationTest_DefaultProfile)  Time elapsed: 0.009 s  <<< FAILURE!
java.lang.NullPointerException

closerDriver(tests.PerfectoFreeTrailRegistrationTest_DefaultProfile)  Time elapsed: 0.011 s  <<< FAILURE!
java.lang.NullPointerException

closerDriver(tests.PerfectoFreeTrailRegistrationTest_DefaultProfile)  Time elapsed: 0.011 s  <<< FAILURE!
java.lang.NullPointerException

