<?xml version="1.0" encoding="UTF-8"?>
<testsuite xmlns:xsi="http://www.w3.org/2001/XMLSchema-instance" xsi:noNamespaceSchemaLocation="https://maven.apache.org/surefire/maven-surefire-plugin/xsd/surefire-test-report.xsd" name="TestSuite" time="1.032" tests="19" errors="0" skipped="7" failures="12">
  <properties>
    <property name="gopherProxySet" value="false"/>
    <property name="awt.toolkit" value="sun.lwawt.macosx.LWCToolkit"/>
    <property name="file.encoding.pkg" value="sun.io"/>
    <property name="java.specification.version" value="1.8"/>
    <property name="sun.cpu.isalist" value=""/>
    <property name="sun.jnu.encoding" value="UTF-8"/>
    <property name="java.class.path" value="/Users/joolz/Documents/GitLab/TestModeller/Framework/target/test-classes:/Users/joolz/Documents/GitLab/TestModeller/Framework/target/classes:/Users/joolz/.m2/repository/org/seleniumhq/selenium/selenium-java/3.141.59/selenium-java-3.141.59.jar:/Users/joolz/.m2/repository/org/seleniumhq/selenium/selenium-api/3.141.59/selenium-api-3.141.59.jar:/Users/joolz/.m2/repository/org/seleniumhq/selenium/selenium-chrome-driver/3.141.59/selenium-chrome-driver-3.141.59.jar:/Users/joolz/.m2/repository/org/seleniumhq/selenium/selenium-edge-driver/3.141.59/selenium-edge-driver-3.141.59.jar:/Users/joolz/.m2/repository/org/seleniumhq/selenium/selenium-firefox-driver/3.141.59/selenium-firefox-driver-3.141.59.jar:/Users/joolz/.m2/repository/org/seleniumhq/selenium/selenium-ie-driver/3.141.59/selenium-ie-driver-3.141.59.jar:/Users/joolz/.m2/repository/org/seleniumhq/selenium/selenium-opera-driver/3.141.59/selenium-opera-driver-3.141.59.jar:/Users/joolz/.m2/repository/org/seleniumhq/selenium/selenium-remote-driver/3.141.59/selenium-remote-driver-3.141.59.jar:/Users/joolz/.m2/repository/org/seleniumhq/selenium/selenium-safari-driver/3.141.59/selenium-safari-driver-3.141.59.jar:/Users/joolz/.m2/repository/org/seleniumhq/selenium/selenium-support/3.141.59/selenium-support-3.141.59.jar:/Users/joolz/.m2/repository/net/bytebuddy/byte-buddy/1.8.15/byte-buddy-1.8.15.jar:/Users/joolz/.m2/repository/org/apache/commons/commons-exec/1.3/commons-exec-1.3.jar:/Users/joolz/.m2/repository/com/google/guava/guava/25.0-jre/guava-25.0-jre.jar:/Users/joolz/.m2/repository/com/google/code/findbugs/jsr305/1.3.9/jsr305-1.3.9.jar:/Users/joolz/.m2/repository/org/checkerframework/checker-compat-qual/2.0.0/checker-compat-qual-2.0.0.jar:/Users/joolz/.m2/repository/com/google/errorprone/error_prone_annotations/2.1.3/error_prone_annotations-2.1.3.jar:/Users/joolz/.m2/repository/com/google/j2objc/j2objc-annotations/1.1/j2objc-annotations-1.1.jar:/Users/joolz/.m2/repository/org/codehaus/mojo/animal-sniffer-annotations/1.14/animal-sniffer-annotations-1.14.jar:/Users/joolz/.m2/repository/com/squareup/okhttp3/okhttp/3.11.0/okhttp-3.11.0.jar:/Users/joolz/.m2/repository/com/squareup/okio/okio/1.14.0/okio-1.14.0.jar:/Users/joolz/.m2/repository/com/aventstack/extentreports-testng-adapter/1.0.3/extentreports-testng-adapter-1.0.3.jar:/Users/joolz/.m2/repository/org/mongodb/mongodb-driver/3.3.0/mongodb-driver-3.3.0.jar:/Users/joolz/.m2/repository/org/mongodb/mongodb-driver-core/3.3.0/mongodb-driver-core-3.3.0.jar:/Users/joolz/.m2/repository/com/aventstack/extentreports/4.0.9/extentreports-4.0.9.jar:/Users/joolz/.m2/repository/org/freemarker/freemarker/2.3.23/freemarker-2.3.23.jar:/Users/joolz/.m2/repository/org/mongodb/bson/3.3.0/bson-3.3.0.jar:/Users/joolz/.m2/repository/org/apache/httpcomponents/httpclient/4.5.2/httpclient-4.5.2.jar:/Users/joolz/.m2/repository/org/apache/httpcomponents/httpcore/4.4.4/httpcore-4.4.4.jar:/Users/joolz/.m2/repository/commons-logging/commons-logging/1.2/commons-logging-1.2.jar:/Users/joolz/.m2/repository/commons-codec/commons-codec/1.9/commons-codec-1.9.jar:/Users/joolz/.m2/repository/org/apache/httpcomponents/httpmime/4.5.2/httpmime-4.5.2.jar:/Users/joolz/.m2/repository/com/google/code/gson/gson/2.8.5/gson-2.8.5.jar:/Users/joolz/.m2/repository/org/assertj/assertj-core/3.16.1/assertj-core-3.16.1.jar:/Users/joolz/.m2/repository/ie/curiositysoftware/testmodeller/2.0.12/testmodeller-2.0.12.jar:/Users/joolz/.m2/repository/com/mashape/unirest/unirest-java/1.4.9/unirest-java-1.4.9.jar:/Users/joolz/.m2/repository/org/apache/httpcomponents/httpasyncclient/4.1.1/httpasyncclient-4.1.1.jar:/Users/joolz/.m2/repository/org/apache/httpcomponents/httpcore-nio/4.4.4/httpcore-nio-4.4.4.jar:/Users/joolz/.m2/repository/org/json/json/20160212/json-20160212.jar:/Users/joolz/.m2/repository/commons-io/commons-io/2.6/commons-io-2.6.jar:/Users/joolz/.m2/repository/com/fasterxml/jackson/core/jackson-databind/2.9.10.4/jackson-databind-2.9.10.4.jar:/Users/joolz/.m2/repository/com/fasterxml/jackson/core/jackson-annotations/2.9.10/jackson-annotations-2.9.10.jar:/Users/joolz/.m2/repository/com/fasterxml/jackson/core/jackson-core/2.9.10/jackson-core-2.9.10.jar:/Users/joolz/.m2/repository/net/lingala/zip4j/zip4j/2.2.4/zip4j-2.2.4.jar:/Users/joolz/.m2/repository/org/jooq/joor-java-8/0.9.12/joor-java-8-0.9.12.jar:/Users/joolz/.m2/repository/io/appium/java-client/6.1.0/java-client-6.1.0.jar:/Users/joolz/.m2/repository/cglib/cglib/3.2.6/cglib-3.2.6.jar:/Users/joolz/.m2/repository/org/ow2/asm/asm/6.0/asm-6.0.jar:/Users/joolz/.m2/repository/org/apache/ant/ant/1.9.6/ant-1.9.6.jar:/Users/joolz/.m2/repository/org/apache/ant/ant-launcher/1.9.6/ant-launcher-1.9.6.jar:/Users/joolz/.m2/repository/commons-validator/commons-validator/1.6/commons-validator-1.6.jar:/Users/joolz/.m2/repository/commons-beanutils/commons-beanutils/1.9.2/commons-beanutils-1.9.2.jar:/Users/joolz/.m2/repository/commons-digester/commons-digester/1.8.1/commons-digester-1.8.1.jar:/Users/joolz/.m2/repository/commons-collections/commons-collections/3.2.2/commons-collections-3.2.2.jar:/Users/joolz/.m2/repository/org/apache/commons/commons-lang3/3.7/commons-lang3-3.7.jar:/Users/joolz/.m2/repository/org/springframework/spring-context/5.0.5.RELEASE/spring-context-5.0.5.RELEASE.jar:/Users/joolz/.m2/repository/org/springframework/spring-aop/5.0.5.RELEASE/spring-aop-5.0.5.RELEASE.jar:/Users/joolz/.m2/repository/org/springframework/spring-beans/5.0.5.RELEASE/spring-beans-5.0.5.RELEASE.jar:/Users/joolz/.m2/repository/org/springframework/spring-core/5.0.5.RELEASE/spring-core-5.0.5.RELEASE.jar:/Users/joolz/.m2/repository/org/springframework/spring-jcl/5.0.5.RELEASE/spring-jcl-5.0.5.RELEASE.jar:/Users/joolz/.m2/repository/org/springframework/spring-expression/5.0.5.RELEASE/spring-expression-5.0.5.RELEASE.jar:/Users/joolz/.m2/repository/org/aspectj/aspectjweaver/1.9.1/aspectjweaver-1.9.1.jar:/Users/joolz/.m2/repository/org/openpnp/opencv/3.2.0-1/opencv-3.2.0-1.jar:/Users/joolz/.m2/repository/org/testng/testng/6.10/testng-6.10.jar:/Users/joolz/.m2/repository/com/beust/jcommander/1.48/jcommander-1.48.jar:/Users/joolz/.m2/repository/com/perfecto/reporting-sdk/reportium-java/2.3.1/reportium-java-2.3.1.jar:/Users/joolz/.m2/repository/com/perfecto/reporting-sdk/reportium-allure-integration/1.1.21/reportium-allure-integration-1.1.21.jar:/Users/joolz/.m2/repository/org/aspectj/aspectjrt/1.8.9/aspectjrt-1.8.9.jar:/Users/joolz/.m2/repository/org/apache/maven/surefire/surefire-testng-utils/2.21.0/surefire-testng-utils-2.21.0.jar:/Users/joolz/.m2/repository/org/apache/maven/surefire/surefire-grouper/2.21.0/surefire-grouper-2.21.0.jar:"/>
    <property name="java.vm.vendor" value="AdoptOpenJDK"/>
    <property name="sun.arch.data.model" value="64"/>
    <property name="java.vendor.url" value="http://java.oracle.com/"/>
    <property name="user.timezone" value=""/>
    <property name="java.vm.specification.version" value="1.8"/>
    <property name="os.name" value="Mac OS X"/>
    <property name="user.country" value="GB"/>
    <property name="sun.java.launcher" value="SUN_STANDARD"/>
    <property name="sun.boot.library.path" value="/Library/Java/JavaVirtualMachines/adoptopenjdk-8.jdk/Contents/Home/jre/lib"/>
    <property name="sun.java.command" value="/Users/joolz/Documents/GitLab/TestModeller/Framework/target/surefire/surefirebooter1985527621881490749.jar /Users/joolz/Documents/GitLab/TestModeller/Framework/target/surefire 2020-08-11T12-09-50_008-jvmRun1 surefire8035236423042858568tmp surefire_03763907233879012967tmp"/>
    <property name="http.nonProxyHosts" value="local|*.local|169.254/16|*.169.254/16"/>
    <property name="surefire.test.class.path" value="/Users/joolz/Documents/GitLab/TestModeller/Framework/target/test-classes:/Users/joolz/Documents/GitLab/TestModeller/Framework/target/classes:/Users/joolz/.m2/repository/org/seleniumhq/selenium/selenium-java/3.141.59/selenium-java-3.141.59.jar:/Users/joolz/.m2/repository/org/seleniumhq/selenium/selenium-api/3.141.59/selenium-api-3.141.59.jar:/Users/joolz/.m2/repository/org/seleniumhq/selenium/selenium-chrome-driver/3.141.59/selenium-chrome-driver-3.141.59.jar:/Users/joolz/.m2/repository/org/seleniumhq/selenium/selenium-edge-driver/3.141.59/selenium-edge-driver-3.141.59.jar:/Users/joolz/.m2/repository/org/seleniumhq/selenium/selenium-firefox-driver/3.141.59/selenium-firefox-driver-3.141.59.jar:/Users/joolz/.m2/repository/org/seleniumhq/selenium/selenium-ie-driver/3.141.59/selenium-ie-driver-3.141.59.jar:/Users/joolz/.m2/repository/org/seleniumhq/selenium/selenium-opera-driver/3.141.59/selenium-opera-driver-3.141.59.jar:/Users/joolz/.m2/repository/org/seleniumhq/selenium/selenium-remote-driver/3.141.59/selenium-remote-driver-3.141.59.jar:/Users/joolz/.m2/repository/org/seleniumhq/selenium/selenium-safari-driver/3.141.59/selenium-safari-driver-3.141.59.jar:/Users/joolz/.m2/repository/org/seleniumhq/selenium/selenium-support/3.141.59/selenium-support-3.141.59.jar:/Users/joolz/.m2/repository/net/bytebuddy/byte-buddy/1.8.15/byte-buddy-1.8.15.jar:/Users/joolz/.m2/repository/org/apache/commons/commons-exec/1.3/commons-exec-1.3.jar:/Users/joolz/.m2/repository/com/google/guava/guava/25.0-jre/guava-25.0-jre.jar:/Users/joolz/.m2/repository/com/google/code/findbugs/jsr305/1.3.9/jsr305-1.3.9.jar:/Users/joolz/.m2/repository/org/checkerframework/checker-compat-qual/2.0.0/checker-compat-qual-2.0.0.jar:/Users/joolz/.m2/repository/com/google/errorprone/error_prone_annotations/2.1.3/error_prone_annotations-2.1.3.jar:/Users/joolz/.m2/repository/com/google/j2objc/j2objc-annotations/1.1/j2objc-annotations-1.1.jar:/Users/joolz/.m2/repository/org/codehaus/mojo/animal-sniffer-annotations/1.14/animal-sniffer-annotations-1.14.jar:/Users/joolz/.m2/repository/com/squareup/okhttp3/okhttp/3.11.0/okhttp-3.11.0.jar:/Users/joolz/.m2/repository/com/squareup/okio/okio/1.14.0/okio-1.14.0.jar:/Users/joolz/.m2/repository/com/aventstack/extentreports-testng-adapter/1.0.3/extentreports-testng-adapter-1.0.3.jar:/Users/joolz/.m2/repository/org/mongodb/mongodb-driver/3.3.0/mongodb-driver-3.3.0.jar:/Users/joolz/.m2/repository/org/mongodb/mongodb-driver-core/3.3.0/mongodb-driver-core-3.3.0.jar:/Users/joolz/.m2/repository/com/aventstack/extentreports/4.0.9/extentreports-4.0.9.jar:/Users/joolz/.m2/repository/org/freemarker/freemarker/2.3.23/freemarker-2.3.23.jar:/Users/joolz/.m2/repository/org/mongodb/bson/3.3.0/bson-3.3.0.jar:/Users/joolz/.m2/repository/org/apache/httpcomponents/httpclient/4.5.2/httpclient-4.5.2.jar:/Users/joolz/.m2/repository/org/apache/httpcomponents/httpcore/4.4.4/httpcore-4.4.4.jar:/Users/joolz/.m2/repository/commons-logging/commons-logging/1.2/commons-logging-1.2.jar:/Users/joolz/.m2/repository/commons-codec/commons-codec/1.9/commons-codec-1.9.jar:/Users/joolz/.m2/repository/org/apache/httpcomponents/httpmime/4.5.2/httpmime-4.5.2.jar:/Users/joolz/.m2/repository/com/google/code/gson/gson/2.8.5/gson-2.8.5.jar:/Users/joolz/.m2/repository/org/assertj/assertj-core/3.16.1/assertj-core-3.16.1.jar:/Users/joolz/.m2/repository/ie/curiositysoftware/testmodeller/2.0.12/testmodeller-2.0.12.jar:/Users/joolz/.m2/repository/com/mashape/unirest/unirest-java/1.4.9/unirest-java-1.4.9.jar:/Users/joolz/.m2/repository/org/apache/httpcomponents/httpasyncclient/4.1.1/httpasyncclient-4.1.1.jar:/Users/joolz/.m2/repository/org/apache/httpcomponents/httpcore-nio/4.4.4/httpcore-nio-4.4.4.jar:/Users/joolz/.m2/repository/org/json/json/20160212/json-20160212.jar:/Users/joolz/.m2/repository/commons-io/commons-io/2.6/commons-io-2.6.jar:/Users/joolz/.m2/repository/com/fasterxml/jackson/core/jackson-databind/2.9.10.4/jackson-databind-2.9.10.4.jar:/Users/joolz/.m2/repository/com/fasterxml/jackson/core/jackson-annotations/2.9.10/jackson-annotations-2.9.10.jar:/Users/joolz/.m2/repository/com/fasterxml/jackson/core/jackson-core/2.9.10/jackson-core-2.9.10.jar:/Users/joolz/.m2/repository/net/lingala/zip4j/zip4j/2.2.4/zip4j-2.2.4.jar:/Users/joolz/.m2/repository/org/jooq/joor-java-8/0.9.12/joor-java-8-0.9.12.jar:/Users/joolz/.m2/repository/io/appium/java-client/6.1.0/java-client-6.1.0.jar:/Users/joolz/.m2/repository/cglib/cglib/3.2.6/cglib-3.2.6.jar:/Users/joolz/.m2/repository/org/ow2/asm/asm/6.0/asm-6.0.jar:/Users/joolz/.m2/repository/org/apache/ant/ant/1.9.6/ant-1.9.6.jar:/Users/joolz/.m2/repository/org/apache/ant/ant-launcher/1.9.6/ant-launcher-1.9.6.jar:/Users/joolz/.m2/repository/commons-validator/commons-validator/1.6/commons-validator-1.6.jar:/Users/joolz/.m2/repository/commons-beanutils/commons-beanutils/1.9.2/commons-beanutils-1.9.2.jar:/Users/joolz/.m2/repository/commons-digester/commons-digester/1.8.1/commons-digester-1.8.1.jar:/Users/joolz/.m2/repository/commons-collections/commons-collections/3.2.2/commons-collections-3.2.2.jar:/Users/joolz/.m2/repository/org/apache/commons/commons-lang3/3.7/commons-lang3-3.7.jar:/Users/joolz/.m2/repository/org/springframework/spring-context/5.0.5.RELEASE/spring-context-5.0.5.RELEASE.jar:/Users/joolz/.m2/repository/org/springframework/spring-aop/5.0.5.RELEASE/spring-aop-5.0.5.RELEASE.jar:/Users/joolz/.m2/repository/org/springframework/spring-beans/5.0.5.RELEASE/spring-beans-5.0.5.RELEASE.jar:/Users/joolz/.m2/repository/org/springframework/spring-core/5.0.5.RELEASE/spring-core-5.0.5.RELEASE.jar:/Users/joolz/.m2/repository/org/springframework/spring-jcl/5.0.5.RELEASE/spring-jcl-5.0.5.RELEASE.jar:/Users/joolz/.m2/repository/org/springframework/spring-expression/5.0.5.RELEASE/spring-expression-5.0.5.RELEASE.jar:/Users/joolz/.m2/repository/org/aspectj/aspectjweaver/1.9.1/aspectjweaver-1.9.1.jar:/Users/joolz/.m2/repository/org/openpnp/opencv/3.2.0-1/opencv-3.2.0-1.jar:/Users/joolz/.m2/repository/org/testng/testng/6.10/testng-6.10.jar:/Users/joolz/.m2/repository/com/beust/jcommander/1.48/jcommander-1.48.jar:/Users/joolz/.m2/repository/com/perfecto/reporting-sdk/reportium-java/2.3.1/reportium-java-2.3.1.jar:/Users/joolz/.m2/repository/com/perfecto/reporting-sdk/reportium-allure-integration/1.1.21/reportium-allure-integration-1.1.21.jar:/Users/joolz/.m2/repository/org/aspectj/aspectjrt/1.8.9/aspectjrt-1.8.9.jar:/Users/joolz/.m2/repository/org/apache/maven/surefire/surefire-testng-utils/2.21.0/surefire-testng-utils-2.21.0.jar:/Users/joolz/.m2/repository/org/apache/maven/surefire/surefire-grouper/2.21.0/surefire-grouper-2.21.0.jar:"/>
    <property name="sun.cpu.endian" value="little"/>
    <property name="user.home" value="/Users/joolz"/>
    <property name="user.language" value="en"/>
    <property name="java.specification.vendor" value="Oracle Corporation"/>
    <property name="java.home" value="/Library/Java/JavaVirtualMachines/adoptopenjdk-8.jdk/Contents/Home/jre"/>
    <property name="basedir" value="/Users/joolz/Documents/GitLab/TestModeller/Framework"/>
    <property name="file.separator" value="/"/>
    <property name="line.separator" value="&#10;"/>
    <property name="java.vm.specification.vendor" value="Oracle Corporation"/>
    <property name="java.specification.name" value="Java Platform API Specification"/>
    <property name="java.awt.graphicsenv" value="sun.awt.CGraphicsEnvironment"/>
    <property name="surefire.real.class.path" value="/Users/joolz/Documents/GitLab/TestModeller/Framework/target/surefire/surefirebooter1985527621881490749.jar"/>
    <property name="sun.boot.class.path" value="/Library/Java/JavaVirtualMachines/adoptopenjdk-8.jdk/Contents/Home/jre/lib/resources.jar:/Library/Java/JavaVirtualMachines/adoptopenjdk-8.jdk/Contents/Home/jre/lib/rt.jar:/Library/Java/JavaVirtualMachines/adoptopenjdk-8.jdk/Contents/Home/jre/lib/sunrsasign.jar:/Library/Java/JavaVirtualMachines/adoptopenjdk-8.jdk/Contents/Home/jre/lib/jsse.jar:/Library/Java/JavaVirtualMachines/adoptopenjdk-8.jdk/Contents/Home/jre/lib/jce.jar:/Library/Java/JavaVirtualMachines/adoptopenjdk-8.jdk/Contents/Home/jre/lib/charsets.jar:/Library/Java/JavaVirtualMachines/adoptopenjdk-8.jdk/Contents/Home/jre/lib/jfr.jar:/Library/Java/JavaVirtualMachines/adoptopenjdk-8.jdk/Contents/Home/jre/classes"/>
    <property name="sun.management.compiler" value="HotSpot 64-Bit Tiered Compilers"/>
    <property name="ftp.nonProxyHosts" value="local|*.local|169.254/16|*.169.254/16"/>
    <property name="java.runtime.version" value="1.8.0_212-b03"/>
    <property name="user.name" value="joolz"/>
    <property name="path.separator" value=":"/>
    <property name="os.version" value="10.13.6"/>
    <property name="java.endorsed.dirs" value="/Library/Java/JavaVirtualMachines/adoptopenjdk-8.jdk/Contents/Home/jre/lib/endorsed"/>
    <property name="java.runtime.name" value="OpenJDK Runtime Environment"/>
    <property name="file.encoding" value="UTF-8"/>
    <property name="java.vm.name" value="OpenJDK 64-Bit Server VM"/>
    <property name="localRepository" value="/Users/joolz/.m2/repository"/>
    <property name="java.vendor.url.bug" value="http://bugreport.sun.com/bugreport/"/>
    <property name="java.io.tmpdir" value="/var/folders/2t/2ll984y56ms2nx8c_6qcnj800000gp/T/"/>
    <property name="idea.version" value="2018.3.6"/>
    <property name="java.version" value="1.8.0_212"/>
    <property name="user.dir" value="/Users/joolz/Documents/GitLab/TestModeller/Framework"/>
    <property name="os.arch" value="x86_64"/>
    <property name="java.vm.specification.name" value="Java Virtual Machine Specification"/>
    <property name="java.awt.printerjob" value="sun.lwawt.macosx.CPrinterJob"/>
    <property name="sun.os.patch.level" value="unknown"/>
    <property name="java.library.path" value="/Users/joolz/Library/Java/Extensions:/Library/Java/Extensions:/Network/Library/Java/Extensions:/System/Library/Java/Extensions:/usr/lib/java:."/>
    <property name="java.vm.info" value="mixed mode"/>
    <property name="java.vendor" value="AdoptOpenJDK"/>
    <property name="java.vm.version" value="25.212-b03"/>
    <property name="java.ext.dirs" value="/Users/joolz/Library/Java/Extensions:/Library/Java/JavaVirtualMachines/adoptopenjdk-8.jdk/Contents/Home/jre/lib/ext:/Library/Java/Extensions:/Network/Library/Java/Extensions:/System/Library/Java/Extensions:/usr/lib/java"/>
    <property name="sun.io.unicode.encoding" value="UnicodeBig"/>
    <property name="java.class.version" value="52.0"/>
    <property name="socksNonProxyHosts" value="local|*.local|169.254/16|*.169.254/16"/>
  </properties>
  <testcase name="initDriver" classname="tests.PerfectoFreeTrailRegistrationTest_DefaultProfile" time="0.842">
    <failure message="Please replace &lt;&lt;security token&gt;&gt; with your perfecto security token or pass it as ant properties: -DsecurityToken=&lt;&lt;SECURITY TOKEN&gt;&gt;" type="java.lang.Exception"><![CDATA[java.lang.Exception: Please replace <<security token>> with your perfecto security token or pass it as ant properties: -DsecurityToken=<<SECURITY TOKEN>>
]]></failure>
    <system-out><![CDATA[Report location - /Users/joolz/Documents/GitLab/TestModeller/Framework/report/index.html
]]></system-out>
  </testcase>
  <testcase name="initDriver" classname="tests.PerfectoFreeTrailRegistrationTest_DefaultProfile" time="0.843">
    <failure message="Please replace &lt;&lt;security token&gt;&gt; with your perfecto security token or pass it as ant properties: -DsecurityToken=&lt;&lt;SECURITY TOKEN&gt;&gt;" type="java.lang.Exception"><![CDATA[java.lang.Exception: Please replace <<security token>> with your perfecto security token or pass it as ant properties: -DsecurityToken=<<SECURITY TOKEN>>
]]></failure>
  </testcase>
  <testcase name="initDriver" classname="tests.PerfectoFreeTrailRegistrationTest_DefaultProfile" time="0.843">
    <failure message="Please replace &lt;&lt;security token&gt;&gt; with your perfecto security token or pass it as ant properties: -DsecurityToken=&lt;&lt;SECURITY TOKEN&gt;&gt;" type="java.lang.Exception"><![CDATA[java.lang.Exception: Please replace <<security token>> with your perfecto security token or pass it as ant properties: -DsecurityToken=<<SECURITY TOKEN>>
]]></failure>
  </testcase>
  <testcase name="initDriver" classname="tests.PerfectoFreeTrailRegistrationTest_DefaultProfile" time="0.843">
    <failure message="Please replace &lt;&lt;security token&gt;&gt; with your perfecto security token or pass it as ant properties: -DsecurityToken=&lt;&lt;SECURITY TOKEN&gt;&gt;" type="java.lang.Exception"><![CDATA[java.lang.Exception: Please replace <<security token>> with your perfecto security token or pass it as ant properties: -DsecurityToken=<<SECURITY TOKEN>>
]]></failure>
  </testcase>
  <testcase name="initDriver" classname="tests.PerfectoFreeTrailRegistrationTest_DefaultProfile" time="0.843">
    <failure message="Please replace &lt;&lt;security token&gt;&gt; with your perfecto security token or pass it as ant properties: -DsecurityToken=&lt;&lt;SECURITY TOKEN&gt;&gt;" type="java.lang.Exception"><![CDATA[java.lang.Exception: Please replace <<security token>> with your perfecto security token or pass it as ant properties: -DsecurityToken=<<SECURITY TOKEN>>
]]></failure>
  </testcase>
  <testcase name="initDriver" classname="tests.PerfectoFreeTrailRegistrationTest_DefaultProfile" time="0.843">
    <failure message="Please replace &lt;&lt;security token&gt;&gt; with your perfecto security token or pass it as ant properties: -DsecurityToken=&lt;&lt;SECURITY TOKEN&gt;&gt;" type="java.lang.Exception"><![CDATA[java.lang.Exception: Please replace <<security token>> with your perfecto security token or pass it as ant properties: -DsecurityToken=<<SECURITY TOKEN>>
]]></failure>
  </testcase>
  <testcase name="GoToUrlClickFreeTrialMovetoFirstnamePositiveEnterFirstNamePositiveEnterLastNamePositiveEnterPh1" classname="tests.PerfectoFreeTrailRegistrationTest_DefaultProfile" time="0">
    <skipped message="Please replace &lt;&lt;security token&gt;&gt; with your perfecto security token or pass it as ant properties: -DsecurityToken=&lt;&lt;SECURITY TOKEN&gt;&gt;"/>
    <system-err><![CDATA[java.lang.NullPointerException
	at reports.ReportiumTestListener.onTestStart(ReportiumTestListener.java:35)
	at org.testng.internal.Invoker.runTestListeners(Invoker.java:1724)
	at org.testng.internal.Invoker.runTestListeners(Invoker.java:1699)
	at org.testng.internal.Invoker.invokeMethod(Invoker.java:622)
	at org.testng.internal.Invoker.invokeTestMethod(Invoker.java:851)
	at org.testng.internal.Invoker.invokeTestMethods(Invoker.java:1177)
	at org.testng.internal.TestMethodWorker.invokeTestMethods(TestMethodWorker.java:129)
	at org.testng.internal.TestMethodWorker.run(TestMethodWorker.java:112)
	at java.util.concurrent.ThreadPoolExecutor.runWorker(ThreadPoolExecutor.java:1149)
	at java.util.concurrent.ThreadPoolExecutor$Worker.run(ThreadPoolExecutor.java:624)
	at java.lang.Thread.run(Thread.java:748)
java.lang.NullPointerException
	at reports.ReportiumTestListener.onTestStart(ReportiumTestListener.java:35)
	at org.testng.internal.Invoker.runTestListeners(Invoker.java:1724)
	at org.testng.internal.Invoker.runTestListeners(Invoker.java:1699)
	at org.testng.internal.Invoker.invokeMethod(Invoker.java:622)
	at org.testng.internal.Invoker.invokeTestMethod(Invoker.java:851)
	at org.testng.internal.Invoker.invokeTestMethods(Invoker.java:1177)]]></system-err>
  </testcase>
  <testcase name="GoToUrlClickFreeTrialMovetoFirstnamePositiveEnterFirstNamePositiveEnterLastNamePositiveEnterPh1" classname="tests.PerfectoFreeTrailRegistrationTest_DefaultProfile" time="0">
    <skipped message="Please replace &lt;&lt;security token&gt;&gt; with your perfecto security token or pass it as ant properties: -DsecurityToken=&lt;&lt;SECURITY TOKEN&gt;&gt;"/>
    <system-err><![CDATA[	at java.util.concurrent.ThreadPoolExecutor.runWorker(ThreadPoolExecutor.java:1149)
	at java.util.concurrent.ThreadPoolExecutor$Worker.run(ThreadPoolExecutor.java:624)
	at java.lang.Thread.run(Thread.java:748)
java.lang.NullPointerException
]]></system-err>
  </testcase>
  <testcase name="GoToUrlClickFreeTrialMovetoFirstnamePositiveEnterFirstNamePositiveEnterLastNamePositiveEnterPh1" classname="tests.PerfectoFreeTrailRegistrationTest_DefaultProfile" time="0">
    <skipped message="Please replace &lt;&lt;security token&gt;&gt; with your perfecto security token or pass it as ant properties: -DsecurityToken=&lt;&lt;SECURITY TOKEN&gt;&gt;"/>
    <system-err><![CDATA[
	at java.util.concurrent.ThreadPoolExecutor.runWorker(ThreadPoolExecutor.java:1149)
	at java.util.concurrent.ThreadPoolExecutor$Worker.run(ThreadPoolExecutor.java:624)
	at java.lang.Thread.run(Thread.java:748)
java.lang.NullPointerException
	at reports.ReportiumTestListener.onTestStart(ReportiumTestListener.java:35)]]></system-err>
  </testcase>
  <testcase name="GoToUrlClickFreeTrialMovetoFirstnamePositiveEnterFirstNamePositiveEnterLastNamePositiveEnterPh2" classname="tests.PerfectoFreeTrailRegistrationTest_DefaultProfile" time="0">
    <skipped message="Please replace &lt;&lt;security token&gt;&gt; with your perfecto security token or pass it as ant properties: -DsecurityToken=&lt;&lt;SECURITY TOKEN&gt;&gt;"/>
    <system-err><![CDATA[
	at org.testng.internal.TestMethodWorker.invokeTestMethods(TestMethodWorker.java:129)
	at org.testng.internal.TestMethodWorker.run(TestMethodWorker.java:112)
	at java.util.concurrent.ThreadPoolExecutor.runWorker(ThreadPoolExecutor.java:1149)
	at java.util.concurrent.ThreadPoolExecutor$Worker.run(ThreadPoolExecutor.java:624)
	at java.lang.Thread.run(Thread.java:748)
java.lang.NullPointerException
	at reports.ReportiumTestListener.onTestStart(ReportiumTestListener.java:35)]]></system-err>
  </testcase>
  <testcase name="GoToUrlClickFreeTrialMovetoFirstnamePositiveEnterFirstNamePositiveEnterLastNamePositiveEnterPh2" classname="tests.PerfectoFreeTrailRegistrationTest_DefaultProfile" time="0">
    <skipped message="Please replace &lt;&lt;security token&gt;&gt; with your perfecto security token or pass it as ant properties: -DsecurityToken=&lt;&lt;SECURITY TOKEN&gt;&gt;"/>
    <system-err><![CDATA[	at java.util.concurrent.ThreadPoolExecutor.runWorker(ThreadPoolExecutor.java:1149)
	at java.util.concurrent.ThreadPoolExecutor$Worker.run(ThreadPoolExecutor.java:624)
	at java.lang.Thread.run(Thread.java:748)
java.lang.NullPointerException
]]></system-err>
  </testcase>
  <testcase name="GoToUrlClickFreeTrialMovetoFirstnamePositiveEnterFirstNamePositiveEnterLastNamePositiveEnterPh2" classname="tests.PerfectoFreeTrailRegistrationTest_DefaultProfile" time="0">
    <skipped/>
    <system-err><![CDATA[
	at java.util.concurrent.ThreadPoolExecutor$Worker.run(ThreadPoolExecutor.java:624)
	at java.lang.Thread.run(Thread.java:748)
]]></system-err>
  </testcase>
  <testcase name="closerDriver" classname="tests.PerfectoFreeTrailRegistrationTest_DefaultProfile" time="0.006">
    <failure type="java.lang.NullPointerException">java.lang.NullPointerException
</failure>
    <system-err><![CDATA[
]]></system-err>
  </testcase>
  <testcase name="closerDriver" classname="tests.PerfectoFreeTrailRegistrationTest_DefaultProfile" time="0.007">
    <failure type="java.lang.NullPointerException">java.lang.NullPointerException
</failure>
    <system-err><![CDATA[	at org.testng.internal.Invoker.runTestListeners(Invoker.java:1724)
	at org.testng.internal.Invoker.runTestListeners(Invoker.java:1699)
	at org.testng.internal.Invoker.invokeMethod(Invoker.java:622)
	at org.testng.internal.Invoker.invokeTestMethod(Invoker.java:851)
	at org.testng.internal.Invoker.invokeTestMethods(Invoker.java:1177)
	at org.testng.internal.TestMethodWorker.invokeTestMethods(TestMethodWorker.java:129)
	at org.testng.internal.TestMethodWorker.run(TestMethodWorker.java:112)
]]></system-err>
  </testcase>
  <testcase name="closerDriver" classname="tests.PerfectoFreeTrailRegistrationTest_DefaultProfile" time="0.008">
    <failure type="java.lang.NullPointerException">java.lang.NullPointerException
</failure>
    <system-err><![CDATA[	at reports.ReportiumTestListener.onTestStart(ReportiumTestListener.java:35)
	at org.testng.internal.Invoker.runTestListeners(Invoker.java:1724)
	at org.testng.internal.Invoker.runTestListeners(Invoker.java:1699)
	at org.testng.internal.Invoker.invokeMethod(Invoker.java:622)
	at org.testng.internal.Invoker.invokeTestMethod(Invoker.java:851)
	at org.testng.internal.Invoker.invokeTestMethods(Invoker.java:1177)
	at org.testng.internal.TestMethodWorker.invokeTestMethods(TestMethodWorker.java:129)
	at org.testng.internal.TestMethodWorker.run(TestMethodWorker.java:112)
]]></system-err>
  </testcase>
  <testcase name="closerDriver" classname="tests.PerfectoFreeTrailRegistrationTest_DefaultProfile" time="0.009">
    <failure type="java.lang.NullPointerException">java.lang.NullPointerException
</failure>
    <system-err><![CDATA[	at reports.ReportiumTestListener.onTestStart(ReportiumTestListener.java:35)
	at org.testng.internal.Invoker.runTestListeners(Invoker.java:1724)
	at org.testng.internal.Invoker.runTestListeners(Invoker.java:1699)
	at org.testng.internal.Invoker.invokeMethod(Invoker.java:622)
	at org.testng.internal.Invoker.invokeTestMethod(Invoker.java:851)
	at org.testng.internal.Invoker.invokeTestMethods(Invoker.java:1177)
	at org.testng.internal.TestMethodWorker.invokeTestMethods(TestMethodWorker.java:129)
	at org.testng.internal.TestMethodWorker.run(TestMethodWorker.java:112)]]></system-err>
  </testcase>
  <testcase name="closerDriver" classname="tests.PerfectoFreeTrailRegistrationTest_DefaultProfile" time="0.011">
    <failure type="java.lang.NullPointerException">java.lang.NullPointerException
</failure>
    <system-err><![CDATA[
	at org.testng.internal.Invoker.runTestListeners(Invoker.java:1724)
	at org.testng.internal.Invoker.runTestListeners(Invoker.java:1699)
	at org.testng.internal.Invoker.invokeMethod(Invoker.java:622)
	at org.testng.internal.Invoker.invokeTestMethod(Invoker.java:851)
	at org.testng.internal.Invoker.invokeTestMethods(Invoker.java:1177)
	at org.testng.internal.TestMethodWorker.invokeTestMethods(TestMethodWorker.java:129)
	at org.testng.internal.TestMethodWorker.run(TestMethodWorker.java:112)
	at java.util.concurrent.ThreadPoolExecutor.runWorker(ThreadPoolExecutor.java:1149)]]></system-err>
  </testcase>
  <testcase name="closerDriver" classname="tests.PerfectoFreeTrailRegistrationTest_DefaultProfile" time="0.011">
    <failure type="java.lang.NullPointerException">java.lang.NullPointerException
</failure>
  </testcase>
  <testcase name="closeReporter" classname="tests.PerfectoFreeTrailRegistrationTest_DefaultProfile" time="0">
    <skipped/>
  </testcase>
</testsuite>